Function, Fitness, Np, Nd, lastStep, bestStep, Evals, Position Time, Fitness Time, Velocity Time, Total Time
F2	-138.886	50	100	3000	2999	150000	0.343905	0.775221	1.48801	2.60967
F2	-138.886	50	100	3000	2999	150000	0.337489	0.760001	1.45728	2.55608
F2	-138.886	50	100	3000	2999	150000	0.337609	0.760098	1.45744	2.55645
F2	-138.886	50	100	3000	2999	150000	0.340645	0.766867	1.46893	2.57774
F2	-138.886	50	100	3000	2999	150000	0.342689	0.772077	1.4818	2.59791
F2	-138.886	50	100	3000	2999	150000	0.337507	0.760077	1.45706	2.55596
F2	-138.886	50	100	3000	2999	150000	0.33801	0.760799	1.45888	2.559
F2	-138.886	50	100	3000	2999	150000	0.340163	0.765845	1.46721	2.57453
F2	-138.886	50	100	3000	2999	150000	0.33827	0.761794	1.46049	2.56191
F2	-138.886	50	100	3000	2999	150000	0.337517	0.759969	1.45691	2.55572
										
F2	-75.1492	100	100	3000	2999	300000	0.679024	1.52078	2.95376	5.15578
F2	-75.1492	100	100	3000	2999	300000	0.678525	1.5202	2.95261	5.15354
F2	-75.1492	100	100	3000	2999	300000	0.677649	1.51826	2.94824	5.14639
F2	-75.1492	100	100	3000	2999	300000	0.677481	1.51804	2.94857	5.14633
F2	-75.1492	100	100	3000	2999	300000	0.678427	1.51964	2.9522	5.15252
F2	-75.1492	100	100	3000	2999	300000	0.677588	1.51795	2.94811	5.14591
F2	-75.1492	100	100	3000	2999	300000	0.679038	1.5213	2.95564	5.15822
F2	-75.1492	100	100	3000	2999	300000	0.677663	1.51801	2.94853	5.1465
F2	-75.1492	100	100	3000	2999	300000	0.67823	1.51907	2.95154	5.15114
F2	-75.1492	100	100	3000	2999	300000	0.677827	1.51885	2.94952	5.14843
										
F2	-100.727	150	100	3000	2999	450000	1.01837	2.31128	4.48996	7.8227
F2	-100.727	150	100	3000	2999	450000	1.01796	2.31	4.48738	7.81838
F2	-100.727	150	100	3000	2999	450000	1.01775	2.30981	4.48608	7.81671
F2	-100.727	150	100	3000	2999	450000	1.01807	2.3104	4.48755	7.8191
F2	-100.727	150	100	3000	2999	450000	1.01826	2.31161	4.48922	7.8222
F2	-100.727	150	100	3000	2999	450000	1.0178	2.31049	4.48726	7.81867
F2	-100.727	150	100	3000	2999	450000	1.01769	2.31046	4.48758	7.81881
F2	-100.727	150	100	3000	2999	450000	1.0178	2.31063	4.48967	7.82125
F2	-100.727	150	100	3000	2999	450000	1.01828	2.31085	4.48843	7.82064
F2	-100.727	150	100	3000	2999	450000	1.01783	2.31025	4.48685	7.81796
										
F2	-105.749	200	100	3000	2999	600000	1.35633	3.04488	5.91282	10.3179
F2	-105.749	200	100	3000	2999	600000	1.35727	3.04686	5.91717	10.3251
F2	-105.749	200	100	3000	2999	600000	1.35636	3.04451	5.91363	10.3184
F2	-105.749	200	100	3000	2999	600000	1.35666	3.0463	5.91504	10.3218
F2	-105.749	200	100	3000	2999	600000	1.35709	3.0466	5.91714	10.3247
F2	-105.749	200	100	3000	2999	600000	1.35637	3.04514	5.91353	10.3189
F2	-105.749	200	100	3000	2999	600000	1.35646	3.0442	5.91242	10.3169
F2	-105.749	200	100	3000	2999	600000	1.35731	3.0461	5.91596	10.3233
F2	-105.749	200	100	3000	2999	600000	1.36419	3.06072	5.94177	10.3706
F2	-105.749	200	100	3000	2999	600000	1.36843	3.07149	5.969	10.4128
										
F2	-87.8408	250	100	3000	2999	750000	1.70732	3.84508	7.49983	13.0572
F2	-87.8408	250	100	3000	2999	750000	1.70204	3.84068	7.49091	13.0383
F2	-87.8408	250	100	3000	2999	750000	1.70361	3.83959	7.49099	13.039
F2	-87.8408	250	100	3000	2999	750000	1.70084	3.83245	7.47702	13.015
F2	-87.8408	250	100	3000	2999	750000	1.70348	3.83703	7.48986	13.035
F2	-87.8408	250	100	3000	2999	750000	1.69465	3.81872	7.44834	12.9664
F2	-87.8408	250	100	3000	2999	750000	1.69453	3.8174	7.44688	12.9636
F2	-87.8408	250	100	3000	2999	750000	1.70389	3.83674	7.48206	13.0274
F2	-87.8408	250	100	3000	2999	750000	1.70374	3.83813	7.48712	13.0337
F2	-87.8408	250	100	3000	2999	750000	1.70292	3.83817	7.48574	13.0326
										
F2	-80.9143	300	100	3000	2997	900000	2.03586	4.61429	8.94837	15.604
F2	-80.9143	300	100	3000	2997	900000	2.03666	4.61548	8.95179	15.6094
F2	-80.9143	300	100	3000	2997	900000	2.03648	4.61457	8.94981	15.6063
F2	-80.9143	300	100	3000	2997	900000	2.03655	4.61541	8.94984	15.6073
F2	-80.9143	300	100	3000	2997	900000	2.03588	4.61336	8.94723	15.602
F2	-80.9143	300	100	3000	2997	900000	2.03634	4.61508	8.95066	15.6075
F2	-80.9143	300	100	3000	2997	900000	2.0361	4.6133	8.94909	15.6039
F2	-80.9143	300	100	3000	2997	900000	2.03626	4.61463	8.95431	15.602
F2	-80.9143	300	100	3000	2997	900000	2.03798	4.57505	8.95252	15.5711
F2	-80.9143	300	100	3000	2997	900000	2.03843	4.57615	8.95284	15.5729
										
F2	-89.0417	350	100	3000	2999	1050000	2.37564	5.33838	10.3433	18.0636
F2	-89.0417	350	100	3000	2999	1050000	2.37849	5.34776	10.3659	18.0983
F2	-89.0417	350	100	3000	2999	1050000	2.37506	5.33692	10.3435	18.0617
F2	-89.0417	350	100	3000	2999	1050000	2.38245	5.35797	10.3877	18.1343
F2	-89.0417	350	100	3000	2999	1050000	2.37965	5.34766	10.3663	18.0999
F2	-89.0417	350	100	3000	2999	1050000	2.37445	5.33769	10.3448	18.0632
F2	-89.0417	350	100	3000	2999	1050000	2.38165	5.35045	10.3771	18.1155
F2	-89.0417	350	100	3000	2999	1050000	2.37581	5.339	10.3485	18.0695
F2	-89.0417	350	100	3000	2999	1050000	2.37482	5.33943	10.3462	18.0666
F2	-89.0417	350	100	3000	2999	1050000	2.38742	5.36556	10.3967	18.1559
										
F2	-73.0041	400	100	3000	2999	1200000	2.77514	6.22182	12.3281	21.3325
F2	-73.0041	400	100	3000	2999	1200000	2.71959	6.09446	12.0726	20.8937
F2	-73.0041	400	100	3000	2999	1200000	2.71868	6.09399	12.0719	20.8916
F2	-73.0041	400	100	3000	2999	1200000	2.72016	6.09589	12.0753	20.8983
F2	-73.0041	400	100	3000	2999	1200000	2.71871	6.09485	12.0729	20.8935
F2	-73.0041	400	100	3000	2999	1200000	2.71977	6.09411	12.0736	20.8946
F2	-73.0041	400	100	3000	2999	1200000	2.7224	6.10144	12.0829	20.9138
F2	-73.0041	400	100	3000	2999	1200000	2.71949	6.09353	12.0707	20.8907
F2	-73.0041	400	100	3000	2999	1200000	2.73134	6.12126	12.1228	20.9824
F2	-73.0041	400	100	3000	2999	1200000	2.72206	6.09883	12.082	20.9098
										
F2	-107.125	450	100	3000	2998	1350000	3.0507	6.82527	13.3678	23.2516
F2	-107.125	450	100	3000	2998	1350000	3.05085	6.82469	13.3678	23.2512
F2	-107.125	450	100	3000	2998	1350000	3.05529	6.8365	13.3879	23.2875
F2	-107.125	450	100	3000	2998	1350000	3.05103	6.82515	13.3688	23.2529
F2	-107.125	450	100	3000	2998	1350000	3.05214	6.82789	13.3666	23.4663
F2	-107.125	450	100	3000	2998	1350000	3.04838	6.89347	13.3736	23.3233
F2	-107.125	450	100	3000	2998	1350000	3.04883	6.8944	13.3721	23.3231
F2	-107.125	450	100	3000	2998	1350000	3.05087	6.89953	13.3842	23.3424
F2	-107.125	450	100	3000	2998	1350000	3.04912	6.89495	13.3747	23.3267
F2	-107.125	450	100	3000	2998	1350000	3.06479	6.92915	13.4435	23.4452
										
F2	-90.4642	500	100	3000	2995	1500000	3.3882	7.56775	14.5294	25.494
F2	-90.4642	500	100	3000	2995	1500000	3.38684	7.5662	14.5271	25.4888
F2	-90.4642	500	100	3000	2995	1500000	3.38805	7.56877	14.5279	25.4934
F2	-90.4642	500	100	3000	2995	1500000	3.39814	7.59232	14.5728	25.5719
F2	-90.4642	500	100	3000	2995	1500000	3.38939	7.57098	14.5332	25.5023
F2	-90.4642	500	100	3000	2995	1500000	3.38794	7.56639	14.5273	25.4903
F2	-90.4642	500	100	3000	2995	1500000	3.38811	7.5675	14.5269	25.4911
F2	-90.4642	500	100	3000	2995	1500000	3.3875	7.56587	14.5281	25.4902
F2	-90.4642	500	100	3000	2995	1500000	3.39458	7.58213	14.5572	25.5426
F2	-90.4642	500	100	3000	2995	1500000	3.38866	7.56924	14.5311	25.4977